%YAML 1.1
%TAG !u! tag:unity3d.com,2011:
--- !u!1045 &1
EditorBuildSettings:
  m_ObjectHideFlags: 0
  serializedVersion: 2
  m_Scenes:
  - enabled: 1
    path: Assets/Scenes/ChooseCar.unity
    guid: f7ad18ab4bfdd4b928755ff1f586d3a6
  - enabled: 1
    path: Assets/Scenes/Racing 3D.unity
    guid: a01e8a7558988445e9048b3d3860d5c5
  m_configObjects: {}
